Assg1/Multicycle/Testbenches/Multicycle/testbench.vcd
$date
	Tue Sep 24 18:10:30 2024
$end
$version
	Icarus Verilog
$end
$timescale
	1s
$end
$scope module testbench $end
$var wire 32 ! writedata [31:0] $end
$var wire 1 " memwrite $end
$var wire 32 # dataadr [31:0] $end
$var reg 1 $ clk $end
$var reg 32 % cycle [31:0] $end
$var reg 1 & reset $end
$scope module dut $end
$var wire 1 $ clk $end
$var wire 1 & reset $end
$var wire 32 ' writedata [31:0] $end
$var wire 32 ( readdata [31:0] $end
$var wire 1 " memwrite $end
$var wire 32 ) adr [31:0] $end
$scope module mem $end
$var wire 1 $ clk $end
$var wire 32 * rd [31:0] $end
$var wire 1 " we $end
$var wire 32 + wd [31:0] $end
$var wire 32 , a [31:0] $end
$upscope $end
$scope module mips $end
$var wire 1 $ clk $end
$var wire 32 - readdata [31:0] $end
$var wire 1 & reset $end
$var wire 1 . zero $end
$var wire 32 / writedata [31:0] $end
$var wire 1 0 regwrite $end
$var wire 1 1 regdst $end
$var wire 2 2 pcsrc [1:0] $end
$var wire 1 3 pcen $end
$var wire 6 4 op [5:0] $end
$var wire 1 " memwrite $end
$var wire 1 5 memtoreg $end
$var wire 1 6 irwrite $end
$var wire 1 7 iord $end
$var wire 6 8 funct [5:0] $end
$var wire 2 9 alusrcb [1:0] $end
$var wire 1 : alusrca $end
$var wire 3 ; alucontrol [2:0] $end
$var wire 32 < adr [31:0] $end
$scope module c $end
$var wire 1 $ clk $end
$var wire 1 3 pcen $end
$var wire 1 & reset $end
$var wire 1 . zero $end
$var wire 1 0 regwrite $end
$var wire 1 1 regdst $end
$var wire 1 = pcwrite $end
$var wire 2 > pcsrc [1:0] $end
$var wire 6 ? op [5:0] $end
$var wire 1 " memwrite $end
$var wire 1 5 memtoreg $end
$var wire 1 6 irwrite $end
$var wire 1 7 iord $end
$var wire 6 @ funct [5:0] $end
$var wire 1 A branch $end
$var wire 2 B alusrcb [1:0] $end
$var wire 1 : alusrca $end
$var wire 2 C aluop [1:0] $end
$var wire 3 D alucontrol [2:0] $end
$scope module ad $end
$var wire 6 E funct [5:0] $end
$var wire 2 F aluop [1:0] $end
$var reg 3 G alucontrol [2:0] $end
$upscope $end
$scope module md $end
$var wire 1 $ clk $end
$var wire 1 & reset $end
$var wire 1 0 regwrite $end
$var wire 1 1 regdst $end
$var wire 1 = pcwrite $end
$var wire 2 H pcsrc [1:0] $end
$var wire 6 I op [5:0] $end
$var wire 1 " memwrite $end
$var wire 1 5 memtoreg $end
$var wire 1 6 irwrite $end
$var wire 1 7 iord $end
$var wire 1 A branch $end
$var wire 2 J alusrcb [1:0] $end
$var wire 1 : alusrca $end
$var wire 2 K aluop [1:0] $end
$var parameter 6 L ADDI $end
$var parameter 5 M ADDIEXECUTE $end
$var parameter 5 N ADDIWRITEBACK $end
$var parameter 5 O ALUWRITEBACK $end
$var parameter 6 P BEQ $end
$var parameter 5 Q BRANCH $end
$var parameter 5 R DECODE $end
$var parameter 5 S EXECUTE $end
$var parameter 5 T FETCH $end
$var parameter 6 U J $end
$var parameter 5 V JUMP $end
$var parameter 6 W LW $end
$var parameter 5 X MEMADR $end
$var parameter 5 Y MEMRD $end
$var parameter 5 Z MEMWB $end
$var parameter 5 [ MEMWR $end
$var parameter 6 \ RTYPE $end
$var parameter 6 ] SW $end
$var reg 17 ^ controls [16:0] $end
$var reg 5 _ nextstate [4:0] $end
$var reg 5 ` state [4:0] $end
$upscope $end
$upscope $end
$scope module dp $end
$var wire 3 a alucontrol [2:0] $end
$var wire 1 : alusrca $end
$var wire 2 b alusrcb [1:0] $end
$var wire 1 $ clk $end
$var wire 1 7 iord $end
$var wire 1 6 irwrite $end
$var wire 1 5 memtoreg $end
$var wire 1 3 pcen $end
$var wire 2 c pcsrc [1:0] $end
$var wire 32 d readdata [31:0] $end
$var wire 1 1 regdst $end
$var wire 1 0 regwrite $end
$var wire 1 & reset $end
$var wire 1 . zero $end
$var wire 5 e writereg [4:0] $end
$var wire 32 f writedata [31:0] $end
$var wire 32 g wd3 [31:0] $end
$var wire 32 h srcb [31:0] $end
$var wire 32 i srca [31:0] $end
$var wire 32 j signimmsh [31:0] $end
$var wire 32 k signimm [31:0] $end
$var wire 32 l rd2 [31:0] $end
$var wire 32 m rd1 [31:0] $end
$var wire 32 n pcnext [31:0] $end
$var wire 32 o pc [31:0] $end
$var wire 6 p op [5:0] $end
$var wire 32 q instr [31:0] $end
$var wire 6 r funct [5:0] $end
$var wire 32 s data [31:0] $end
$var wire 32 t aluresult [31:0] $end
$var wire 32 u aluout [31:0] $end
$var wire 32 v adr [31:0] $end
$var wire 32 w a [31:0] $end
$scope module adrmux $end
$var wire 1 7 s $end
$var wire 32 x d1 [31:0] $end
$var wire 32 y d0 [31:0] $end
$var parameter 32 z WIDTH $end
$var reg 32 { y [31:0] $end
$upscope $end
$scope module alu $end
$var wire 3 | F [2:0] $end
$var wire 1 . Zero $end
$var wire 32 } B [31:0] $end
$var wire 32 ~ A [31:0] $end
$var reg 32 !" Y [31:0] $end
$upscope $end
$scope module alureg $end
$var wire 1 $ clk $end
$var wire 32 "" d [31:0] $end
$var wire 1 & reset $end
$var parameter 32 #" WIDTH $end
$var reg 32 $" q [31:0] $end
$upscope $end
$scope module areg $end
$var wire 1 $ clk $end
$var wire 1 & reset $end
$var wire 32 %" d [31:0] $end
$var parameter 32 &" WIDTH $end
$var reg 32 '" q [31:0] $end
$upscope $end
$scope module breg $end
$var wire 1 $ clk $end
$var wire 1 & reset $end
$var wire 32 (" d [31:0] $end
$var parameter 32 )" WIDTH $end
$var reg 32 *" q [31:0] $end
$upscope $end
$scope module datareg $end
$var wire 1 $ clk $end
$var wire 32 +" d [31:0] $end
$var wire 1 & reset $end
$var parameter 32 ," WIDTH $end
$var reg 32 -" q [31:0] $end
$upscope $end
$scope module immsh $end
$var wire 32 ." y [31:0] $end
$var wire 32 /" a [31:0] $end
$upscope $end
$scope module instrreg $end
$var wire 1 $ clk $end
$var wire 32 0" d [31:0] $end
$var wire 1 6 en $end
$var wire 1 & reset $end
$var parameter 32 1" WIDTH $end
$var reg 32 2" q [31:0] $end
$upscope $end
$scope module pcmux $end
$var wire 32 3" d0 [31:0] $end
$var wire 32 4" d1 [31:0] $end
$var wire 32 5" d2 [31:0] $end
$var wire 2 6" s [1:0] $end
$var parameter 32 7" WIDTH $end
$var reg 32 8" y [31:0] $end
$upscope $end
$scope module pcreg $end
$var wire 1 $ clk $end
$var wire 32 9" d [31:0] $end
$var wire 1 3 en $end
$var wire 1 & reset $end
$var parameter 32 :" WIDTH $end
$var reg 32 ;" q [31:0] $end
$upscope $end
$scope module regdstmux $end
$var wire 5 <" d0 [4:0] $end
$var wire 5 =" d1 [4:0] $end
$var wire 1 1 s $end
$var parameter 32 >" WIDTH $end
$var reg 5 ?" y [4:0] $end
$upscope $end
$scope module rf $end
$var wire 1 $ clk $end
$var wire 5 @" ra1 [4:0] $end
$var wire 5 A" ra2 [4:0] $end
$var wire 5 B" wa3 [4:0] $end
$var wire 1 0 we3 $end
$var wire 32 C" wd3 [31:0] $end
$var wire 32 D" rd2 [31:0] $end
$var wire 32 E" rd1 [31:0] $end
$upscope $end
$scope module se $end
$var wire 16 F" a [15:0] $end
$var wire 32 G" y [31:0] $end
$upscope $end
$scope module srcamux $end
$var wire 32 H" d0 [31:0] $end
$var wire 32 I" d1 [31:0] $end
$var wire 1 : s $end
$var parameter 32 J" WIDTH $end
$var reg 32 K" y [31:0] $end
$upscope $end
$scope module srcbmux $end
$var wire 32 L" d0 [31:0] $end
$var wire 32 M" d1 [31:0] $end
$var wire 32 N" d2 [31:0] $end
$var wire 32 O" d3 [31:0] $end
$var wire 2 P" s [1:0] $end
$var parameter 32 Q" WIDTH $end
$var reg 32 R" y [31:0] $end
$upscope $end
$scope module wdmux $end
$var wire 32 S" d0 [31:0] $end
$var wire 32 T" d1 [31:0] $end
$var wire 1 5 s $end
$var parameter 32 U" WIDTH $end
$var reg 32 V" y [31:0] $end
$upscope $end
$upscope $end
$upscope $end
$upscope $end
$upscope $end
$enddefinitions $end
$comment Show the parameter values. $end
$dumpall
b100000 U"
b100000 Q"
b100000 J"
b101 >"
b100000 :"
b100000 7"
b100000 1"
b100000 ,"
b100000 )"
b100000 &"
b100000 #"
b100000 z
b101011 ]
b0 \
b101 [
b100 Z
b11 Y
b10 X
b100011 W
b1011 V
b10 U
b0 T
b110 S
b1 R
b1000 Q
b100 P
b111 O
b1010 N
b1001 M
b1000 L
$end
#0
$dumpvars
b0 V"
b0 T"
b0 S"
b100 R"
b1 P"
b0 O"
b0 N"
b100 M"
b0 L"
b0 K"
b0 I"
b0 H"
b0 G"
b0 F"
b0 E"
b0 D"
b0 C"
b0 B"
b0 A"
b0 @"
b0 ?"
b0 ="
b0 <"
b0 ;"
b100 9"
b100 8"
b0 6"
b0 5"
b0 4"
b100 3"
b0 2"
b100000000000100000000000000101 0"
b0 /"
b0 ."
b0 -"
b100000000000100000000000000101 +"
b0 *"
b0 ("
b0 '"
b0 %"
b0 $"
b100 ""
b100 !"
b0 ~
b100 }
b10 |
b0 {
b0 y
b0 x
b0 w
b0 v
b0 u
b100 t
b0 s
b0 r
b0 q
b0 p
b0 o
b100 n
b0 m
b0 l
b0 k
b0 j
b0 i
b100 h
b0 g
b0 f
b0 e
b100000000000100000000000000101 d
b0 c
b1 b
b10 a
b0 `
b1 _
b101000000010000 ^
b0 K
b1 J
b0 I
b0 H
b10 G
b0 F
b0 E
b10 D
b0 C
b1 B
0A
b0 @
b0 ?
b0 >
1=
b0 <
b10 ;
0:
b1 9
b0 8
07
16
05
b0 4
13
b0 2
01
00
b0 /
0.
b100000000000100000000000000101 -
b0 ,
b0 +
b100000000000100000000000000101 *
b0 )
b100000000000100000000000000101 (
b0 '
1&
bx %
1$
b0 #
0"
b0 !
$end
#5
0$
#10
1$
#12
b1 %
0&
#15
0$
#20
b11000 n
b11000 8"
b11000 9"
b10100 h
b10100 }
b10100 R"
b11000 t
b11000 !"
b11000 ""
b11000 3"
03
b11 9
b11 B
b11 J
b11 b
b11 P"
06
0=
b100000000000110000000000001100 (
b100000000000110000000000001100 *
b100000000000110000000000001100 -
b100000000000110000000000001100 d
b100000000000110000000000001100 +"
b100000000000110000000000001100 0"
b10 e
b10 ?"
b10 B"
b110000 ^
b1001 _
b100 i
b100 ~
b100 K"
b100 #
b100 )
b100 ,
b100 <
b100 v
b100 {
b100 g
b100 C"
b100 V"
b10100 j
b10100 ."
b10100 O"
bx l
bx ("
bx D"
b10000000000000010100 5"
b101 k
b101 /"
b101 G"
b101 N"
b101 F"
b10 A"
b10 <"
b101 8
b101 @
b101 E
b101 r
b1000 4
b1000 ?
b1000 I
b1000 p
b1 `
b100 o
b100 y
b100 ;"
b100 H"
b100000000000100000000000000101 q
b100000000000100000000000000101 2"
b100000000000100000000000000101 s
b100000000000100000000000000101 -"
b100000000000100000000000000101 T"
b100 u
b100 x
b100 $"
b100 4"
b100 S"
1$
b10 %
#25
0$
#30
b101 n
b101 8"
b101 9"
b101 t
b101 !"
b101 ""
b101 3"
b101 h
b101 }
b101 R"
b0 i
b0 ~
b0 K"
b10 9
b10 B
b10 J
b10 b
b10 P"
1:
b11000 g
b11000 C"
b11000 V"
b10000100000 ^
b1010 _
b11000 u
b11000 x
b11000 $"
b11000 4"
b11000 S"
bx !
bx '
bx +
bx /
bx f
bx *"
bx L"
b100000000000110000000000001100 s
b100000000000110000000000001100 -"
b100000000000110000000000001100 T"
b1001 `
1$
b11 %
#35
0$
#40
bx n
bx 8"
bx 9"
x.
bx t
bx !"
bx ""
bx 3"
bx h
bx }
bx R"
b100 i
b100 ~
b100 K"
b0 9
b0 B
b0 J
b0 b
b0 P"
0:
10
b100000000000 ^
b0 _
b101 g
b101 C"
b101 V"
b1010 `
b101 u
b101 x
b101 $"
b101 4"
b101 S"
1$
b100 %
#45
0$
#50
b1000 n
b1000 8"
b1000 9"
0.
b1000 t
b1000 !"
b1000 ""
b1000 3"
b100 h
b100 }
b100 R"
13
b1 9
b1 B
b1 J
b1 b
b1 P"
00
16
1=
bx g
bx C"
bx V"
b101000000010000 ^
b1 _
b101 l
b101 ("
b101 D"
bx u
bx x
bx $"
bx 4"
bx S"
b0 `
1$
b101 %
#55
0$
#60
b111000 n
b111000 8"
b111000 9"
b110000 h
b110000 }
b110000 R"
b111000 t
b111000 !"
b111000 ""
b111000 3"
03
b11 9
b11 B
b11 J
b11 b
b11 P"
06
0=
b100000011001111111111111110111 (
b100000011001111111111111110111 *
b100000011001111111111111110111 -
b100000011001111111111111110111 d
b100000011001111111111111110111 +"
b100000011001111111111111110111 0"
b11 e
b11 ?"
b11 B"
b110000 ^
b1001 _
b1000 i
b1000 ~
b1000 K"
b1000 #
b1000 )
b1000 ,
b1000 <
b1000 v
b1000 {
b1000 g
b1000 C"
b1000 V"
b110000 j
b110000 ."
b110000 O"
bx l
bx ("
bx D"
b11000000000000110000 5"
b1100 k
b1100 /"
b1100 G"
b1100 N"
b1100 F"
b11 A"
b11 <"
b1100 8
b1100 @
b1100 E
b1100 r
b1 `
b1000 o
b1000 y
b1000 ;"
b1000 H"
b100000000000110000000000001100 q
b100000000000110000000000001100 2"
b101 !
b101 '
b101 +
b101 /
b101 f
b101 *"
b101 L"
b1000 u
b1000 x
b1000 $"
b1000 4"
b1000 S"
1$
b110 %
#65
0$
#70
b1100 n
b1100 8"
b1100 9"
b1100 t
b1100 !"
b1100 ""
b1100 3"
b1100 h
b1100 }
b1100 R"
b0 i
b0 ~
b0 K"
b10 9
b10 B
b10 J
b10 b
b10 P"
1:
b111000 g
b111000 C"
b111000 V"
b10000100000 ^
b1010 _
b111000 u
b111000 x
b111000 $"
b111000 4"
b111000 S"
bx !
bx '
bx +
bx /
bx f
bx *"
bx L"
b100000011001111111111111110111 s
b100000011001111111111111110111 -"
b100000011001111111111111110111 T"
b1001 `
1$
b111 %
#75
0$
#80
bx n
bx 8"
bx 9"
x.
bx t
bx !"
bx ""
bx 3"
bx h
bx }
bx R"
b1000 i
b1000 ~
b1000 K"
b0 9
b0 B
b0 J
b0 b
b0 P"
0:
10
b100000000000 ^
b0 _
b1100 g
b1100 C"
b1100 V"
b1010 `
b1100 u
b1100 x
b1100 $"
b1100 4"
b1100 S"
1$
b1000 %
#85
0$
#90
b1100 n
b1100 8"
b1100 9"
0.
b1100 t
b1100 !"
b1100 ""
b1100 3"
b100 h
b100 }
b100 R"
13
b1 9
b1 B
b1 J
b1 b
b1 P"
00
16
1=
bx g
bx C"
bx V"
b101000000010000 ^
b1 _
b1100 l
b1100 ("
b1100 D"
bx u
bx x
bx $"
bx 4"
bx S"
b0 `
1$
b1001 %
#95
0$
#100
b11111111111111111111111111101000 n
b11111111111111111111111111101000 8"
b11111111111111111111111111101000 9"
b11111111111111111111111111011100 h
b11111111111111111111111111011100 }
b11111111111111111111111111011100 R"
b11111111111111111111111111101000 t
b11111111111111111111111111101000 !"
b11111111111111111111111111101000 ""
b11111111111111111111111111101000 3"
03
b11 9
b11 B
b11 J
b11 b
b11 P"
06
0=
b111000100010000000100101 (
b111000100010000000100101 *
b111000100010000000100101 -
b111000100010000000100101 d
b111000100010000000100101 +"
b111000100010000000100101 0"
b111 e
b111 ?"
b111 B"
b110000 ^
b1001 _
b1100 i
b1100 ~
b1100 K"
b1100 #
b1100 )
b1100 ,
b1100 <
b1100 v
b1100 {
b1100 g
b1100 C"
b1100 V"
b11111111111111111111111111011100 j
b11111111111111111111111111011100 ."
b11111111111111111111111111011100 O"
bx l
bx ("
bx D"
b1100 m
b1100 %"
b1100 E"
b1100111111111111111011100 5"
b11111111111111111111111111110111 k
b11111111111111111111111111110111 /"
b11111111111111111111111111110111 G"
b11111111111111111111111111110111 N"
b1111111111110111 F"
b111 A"
b11 @"
b11111 ="
b111 <"
b110111 8
b110111 @
b110111 E
b110111 r
b1 `
b1100 o
b1100 y
b1100 ;"
b1100 H"
b100000011001111111111111110111 q
b100000011001111111111111110111 2"
b1100 !
b1100 '
b1100 +
b1100 /
b1100 f
b1100 *"
b1100 L"
b1100 u
b1100 x
b1100 $"
b1100 4"
b1100 S"
1$
b1010 %
#105
0$
#110
b11 n
b11 8"
b11 9"
b11 t
b11 !"
b11 ""
b11 3"
b11111111111111111111111111110111 h
b11111111111111111111111111110111 }
b11111111111111111111111111110111 R"
b10 9
b10 B
b10 J
b10 b
b10 P"
1:
b11111111111111111111111111101000 g
b11111111111111111111111111101000 C"
b11111111111111111111111111101000 V"
b10000100000 ^
b1010 _
b11111111111111111111111111101000 u
b11111111111111111111111111101000 x
b11111111111111111111111111101000 $"
b11111111111111111111111111101000 4"
b11111111111111111111111111101000 S"
bx !
bx '
bx +
bx /
bx f
bx *"
bx L"
b1100 w
b1100 '"
b1100 I"
b111000100010000000100101 s
b111000100010000000100101 -"
b111000100010000000100101 T"
b1001 `
1$
b1011 %
#115
0$
#120
bx n
bx 8"
bx 9"
x.
bx t
bx !"
bx ""
bx 3"
bx h
bx }
bx R"
b0 9
b0 B
b0 J
b0 b
b0 P"
0:
10
b100000000000 ^
b0 _
b11 g
b11 C"
b11 V"
b1010 `
b11 u
b11 x
b11 $"
b11 4"
b11 S"
1$
b1100 %
#125
0$
#130
b10000 n
b10000 8"
b10000 9"
0.
b10000 t
b10000 !"
b10000 ""
b10000 3"
b100 h
b100 }
b100 R"
13
b1 9
b1 B
b1 J
b1 b
b1 P"
00
16
1=
bx g
bx C"
bx V"
b101000000010000 ^
b1 _
b11 l
b11 ("
b11 D"
bx u
bx x
bx $"
bx 4"
bx S"
b0 `
1$
b1101 %
#135
0$
#140
b1000000010100100 n
b1000000010100100 8"
b1000000010100100 9"
b1000000010010100 h
b1000000010010100 }
b1000000010010100 R"
b1000000010100100 t
b1000000010100100 !"
b1000000010100100 ""
b1000000010100100 3"
03
b11 9
b11 B
b11 J
b11 b
b11 P"
06
0=
b11001000010100000100100 (
b11001000010100000100100 *
b11001000010100000100100 -
b11001000010100000100100 d
b11001000010100000100100 +"
b11001000010100000100100 0"
b10 e
b10 ?"
b10 B"
b110000 ^
b110 _
b10000 i
b10000 ~
b10000 K"
b10000 #
b10000 )
b10000 ,
b10000 <
b10000 v
b10000 {
b10000 g
b10000 C"
b10000 V"
b1000000010010100 j
b1000000010010100 ."
b1000000010010100 O"
b101 l
b101 ("
b101 D"
b11 m
b11 %"
b11 E"
b11100010001000000010010100 5"
b10000000100101 k
b10000000100101 /"
b10000000100101 G"
b10000000100101 N"
b10000000100101 F"
b10 A"
b111 @"
b100 ="
b10 <"
b100101 8
b100101 @
b100101 E
b100101 r
b0 4
b0 ?
b0 I
b0 p
b1 `
b10000 o
b10000 y
b10000 ;"
b10000 H"
b111000100010000000100101 q
b111000100010000000100101 2"
b11 !
b11 '
b11 +
b11 /
b11 f
b11 *"
b11 L"
b10000 u
b10000 x
b10000 $"
b10000 4"
b10000 S"
1$
b1110 %
#145
0$
#150
b111 n
b111 8"
b111 9"
b111 t
b111 !"
b111 ""
b111 3"
b1 ;
b1 D
b1 G
b1 a
b1 |
b101 h
b101 }
b101 R"
b11 i
b11 ~
b11 K"
b10 C
b10 F
b10 K
b0 9
b0 B
b0 J
b0 b
b0 P"
1:
b1000000010100100 g
b1000000010100100 C"
b1000000010100100 V"
b10000000010 ^
b111 _
b1000000010100100 u
b1000000010100100 x
b1000000010100100 $"
b1000000010100100 4"
b1000000010100100 S"
b101 !
b101 '
b101 +
b101 /
b101 f
b101 *"
b101 L"
b11 w
b11 '"
b11 I"
b11001000010100000100100 s
b11001000010100000100100 -"
b11001000010100000100100 T"
b110 `
1$
b1111 %
#155
0$
#160
b10101 n
b10101 8"
b10101 9"
b10101 t
b10101 !"
b10101 ""
b10101 3"
b10 ;
b10 D
b10 G
b10 a
b10 |
b100 e
b100 ?"
b100 B"
b10000 i
b10000 ~
b10000 K"
b0 C
b0 F
b0 K
11
0:
10
b100001000000 ^
b0 _
b111 g
b111 C"
b111 V"
b111 `
b111 u
b111 x
b111 $"
b111 4"
b111 S"
1$
b10000 %
#165
0$
#170
b10100 n
b10100 8"
b10100 9"
b10100 t
b10100 !"
b10100 ""
b10100 3"
b100 h
b100 }
b100 R"
b10 e
b10 ?"
b10 B"
13
b1 9
b1 B
b1 J
b1 b
b1 P"
01
00
16
1=
b10101 g
b10101 C"
b10101 V"
b101000000010000 ^
b1 _
b10101 u
b10101 x
b10101 $"
b10101 4"
b10101 S"
b0 `
1$
b10001 %
#175
0$
#180
b1010000010100100 n
b1010000010100100 8"
b1010000010100100 9"
b1010000010010000 h
b1010000010010000 }
b1010000010010000 R"
b1010000010100100 t
b1010000010100100 !"
b1010000010100100 ""
b1010000010100100 3"
03
b11 9
b11 B
b11 J
b11 b
b11 P"
06
0=
b101001000010100000100000 (
b101001000010100000100000 *
b101001000010100000100000 -
b101001000010100000100000 d
b101001000010100000100000 +"
b101001000010100000100000 0"
b100 e
b100 ?"
b100 B"
b110000 ^
b110 _
b10100 i
b10100 ~
b10100 K"
b10100 #
b10100 )
b10100 ,
b10100 <
b10100 v
b10100 {
b10100 g
b10100 C"
b10100 V"
b1010000010010000 j
b1010000010010000 ."
b1010000010010000 O"
b111 l
b111 ("
b111 D"
b1100 m
b1100 %"
b1100 E"
b1100100001010000010010000 5"
b10100000100100 k
b10100000100100 /"
b10100000100100 G"
b10100000100100 N"
b10100000100100 F"
b100 A"
b11 @"
b101 ="
b100 <"
b100100 8
b100100 @
b100100 E
b100100 r
b1 `
b10100 o
b10100 y
b10100 ;"
b10100 H"
b11001000010100000100100 q
b11001000010100000100100 2"
b10100 u
b10100 x
b10100 $"
b10100 4"
b10100 S"
1$
b10010 %
#185
0$
#190
b100 n
b100 8"
b100 9"
b100 t
b100 !"
b100 ""
b100 3"
b0 ;
b0 D
b0 G
b0 a
b0 |
b111 h
b111 }
b111 R"
b1100 i
b1100 ~
b1100 K"
b10 C
b10 F
b10 K
b0 9
b0 B
b0 J
b0 b
b0 P"
1:
b1010000010100100 g
b1010000010100100 C"
b1010000010100100 V"
b10000000010 ^
b111 _
b1010000010100100 u
b1010000010100100 x
b1010000010100100 $"
b1010000010100100 4"
b1010000010100100 S"
b111 !
b111 '
b111 +
b111 /
b111 f
b111 *"
b111 L"
b1100 w
b1100 '"
b1100 I"
b101001000010100000100000 s
b101001000010100000100000 -"
b101001000010100000100000 T"
b110 `
1$
b10011 %
#195
0$
#200
b11011 n
b11011 8"
b11011 9"
b11011 t
b11011 !"
b11011 ""
b11011 3"
b10 ;
b10 D
b10 G
b10 a
b10 |
b101 e
b101 ?"
b101 B"
b10100 i
b10100 ~
b10100 K"
b0 C
b0 F
b0 K
11
0:
10
b100001000000 ^
b0 _
b100 g
b100 C"
b100 V"
b111 `
b100 u
b100 x
b100 $"
b100 4"
b100 S"
1$
b10100 %
#205
0$
#210
b11000 n
b11000 8"
b11000 9"
b11000 t
b11000 !"
b11000 ""
b11000 3"
b100 h
b100 }
b100 R"
b100 e
b100 ?"
b100 B"
13
b1 9
b1 B
b1 J
b1 b
b1 P"
01
00
16
1=
b11011 g
b11011 C"
b11011 V"
b101000000010000 ^
b1 _
b11011 u
b11011 x
b11011 $"
b11011 4"
b11011 S"
b0 `
1$
b10101 %
#215
0$
#220
b1010000010011000 n
b1010000010011000 8"
b1010000010011000 9"
b1010000010000000 h
b1010000010000000 }
b1010000010000000 R"
b1010000010011000 t
b1010000010011000 !"
b1010000010011000 ""
b1010000010011000 3"
03
b11 9
b11 B
b11 J
b11 b
b11 P"
06
0=
b10000101001110000000000001010 (
b10000101001110000000000001010 *
b10000101001110000000000001010 -
b10000101001110000000000001010 d
b10000101001110000000000001010 +"
b10000101001110000000000001010 0"
b110000 ^
b110 _
b11000 i
b11000 ~
b11000 K"
b11000 #
b11000 )
b11000 ,
b11000 <
b11000 v
b11000 {
b11000 g
b11000 C"
b11000 V"
b1010000010000000 j
b1010000010000000 ."
b1010000010000000 O"
b100 m
b100 %"
b100 E"
b10100100001010000010000000 5"
b10100000100000 k
b10100000100000 /"
b10100000100000 G"
b10100000100000 N"
b10100000100000 F"
b101 @"
b100000 8
b100000 @
b100000 E
b100000 r
b1 `
b11000 o
b11000 y
b11000 ;"
b11000 H"
b101001000010100000100000 q
b101001000010100000100000 2"
b11000 u
b11000 x
b11000 $"
b11000 4"
b11000 S"
1$
b10110 %
#225
0$
#230
b1011 n
b1011 8"
b1011 9"
b1011 t
b1011 !"
b1011 ""
b1011 3"
b111 h
b111 }
b111 R"
b100 i
b100 ~
b100 K"
b10 C
b10 F
b10 K
b0 9
b0 B
b0 J
b0 b
b0 P"
1:
b1010000010011000 g
b1010000010011000 C"
b1010000010011000 V"
b10000000010 ^
b111 _
b1010000010011000 u
b1010000010011000 x
b1010000010011000 $"
b1010000010011000 4"
b1010000010011000 S"
b100 w
b100 '"
b100 I"
b10000101001110000000000001010 s
b10000101001110000000000001010 -"
b10000101001110000000000001010 T"
b110 `
1$
b10111 %
#235
0$
#240
b11111 n
b11111 8"
b11111 9"
b11111 t
b11111 !"
b11111 ""
b11111 3"
b101 e
b101 ?"
b101 B"
b11000 i
b11000 ~
b11000 K"
b0 C
b0 F
b0 K
11
0:
10
b100001000000 ^
b0 _
b1011 g
b1011 C"
b1011 V"
b111 `
b1011 u
b1011 x
b1011 $"
b1011 4"
b1011 S"
1$
b11000 %
#245
0$
#250
b11100 n
b11100 8"
b11100 9"
b11100 t
b11100 !"
b11100 ""
b11100 3"
b100 h
b100 }
b100 R"
b100 e
b100 ?"
b100 B"
13
b1 9
b1 B
b1 J
b1 b
b1 P"
01
00
16
1=
b11111 g
b11111 C"
b11111 V"
b101000000010000 ^
b1 _
b1011 m
b1011 %"
b1011 E"
b11111 u
b11111 x
b11111 $"
b11111 4"
b11111 S"
b0 `
1$
b11001 %
#255
0$
#260
b1000100 n
b1000100 8"
b1000100 9"
b101000 h
b101000 }
b101000 R"
b1000100 t
b1000100 !"
b1000100 ""
b1000100 3"
03
b11 9
b11 B
b11 J
b11 b
b11 P"
06
0=
b11001000010000000101010 (
b11001000010000000101010 *
b11001000010000000101010 -
b11001000010000000101010 d
b11001000010000000101010 +"
b11001000010000000101010 0"
b111 e
b111 ?"
b111 B"
b110000 ^
b1000 _
b11100 i
b11100 ~
b11100 K"
b11100 #
b11100 )
b11100 ,
b11100 <
b11100 v
b11100 {
b11100 g
b11100 C"
b11100 V"
b101000 j
b101000 ."
b101000 O"
b11 l
b11 ("
b11 D"
b10100111000000000000101000 5"
b1010 k
b1010 /"
b1010 G"
b1010 N"
b1010 F"
b111 A"
b0 ="
b111 <"
b1010 8
b1010 @
b1010 E
b1010 r
b100 4
b100 ?
b100 I
b100 p
b1 `
b11100 o
b11100 y
b11100 ;"
b11100 H"
b10000101001110000000000001010 q
b10000101001110000000000001010 2"
b1011 w
b1011 '"
b1011 I"
b11100 u
b11100 x
b11100 $"
b11100 4"
b11100 S"
1$
b11010 %
#265
0$
#270
b1110 t
b1110 !"
b1110 ""
b1110 3"
b11 h
b11 }
b11 R"
b1011 i
b1011 ~
b1011 K"
b1 C
b1 F
b1 K
b1 2
b1 >
b1 H
b1 c
b1 6"
b0 9
b0 B
b0 J
b0 b
b0 P"
1A
1:
b1000100 g
b1000100 C"
b1000100 V"
b11000000101 ^
b0 _
b1000100 u
b1000100 x
b1000100 $"
b1000100 4"
b1000100 S"
b11 !
b11 '
b11 +
b11 /
b11 f
b11 *"
b11 L"
b11001000010000000101010 s
b11001000010000000101010 -"
b11001000010000000101010 T"
b1000 `
1$
b11011 %
#275
0$
#280
b100000 t
b100000 !"
b100000 ""
b100000 3"
b100 h
b100 }
b100 R"
b11100 i
b11100 ~
b11100 K"
13
b0 C
b0 F
b0 K
b0 2
b0 >
b0 H
b0 c
b0 6"
b1 9
b1 B
b1 J
b1 b
b1 P"
0A
0:
16
1=
b101000000010000 ^
b1 _
b100000 n
b100000 8"
b100000 9"
b1110 g
b1110 C"
b1110 V"
b0 `
b1110 u
b1110 x
b1110 $"
b1110 4"
b1110 S"
1$
b11100 %
#285
0$
#290
b1000000011001000 n
b1000000011001000 8"
b1000000011001000 9"
b1000000010101000 h
b1000000010101000 }
b1000000010101000 R"
b1000000011001000 t
b1000000011001000 !"
b1000000011001000 ""
b1000000011001000 3"
03
b11 9
b11 B
b11 J
b11 b
b11 P"
06
0=
b10000100000000000000000000001 (
b10000100000000000000000000001 *
b10000100000000000000000000001 -
b10000100000000000000000000001 d
b10000100000000000000000000001 +"
b10000100000000000000000000001 0"
b100 e
b100 ?"
b100 B"
b100000 g
b100000 C"
b100000 V"
b100000 #
b100000 )
b100000 ,
b100000 <
b100000 v
b100000 {
b100000 i
b100000 ~
b100000 K"
b110000 ^
b110 _
b1000000010101000 j
b1000000010101000 ."
b1000000010101000 O"
b111 l
b111 ("
b111 D"
b1100 m
b1100 %"
b1100 E"
b1100100001000000010101000 5"
b10000000101010 k
b10000000101010 /"
b10000000101010 G"
b10000000101010 N"
b10000000101010 F"
b100 A"
b11 @"
b100 ="
b100 <"
b101010 8
b101010 @
b101010 E
b101010 r
b0 4
b0 ?
b0 I
b0 p
b100000 u
b100000 x
b100000 $"
b100000 4"
b100000 S"
b11001000010000000101010 q
b11001000010000000101010 2"
b100000 o
b100000 y
b100000 ;"
b100000 H"
b1 `
1$
b11101 %
#295
0$
